…
The next step requires some `tidyverse` skills. Start building the new
scenarios:

``` r
simul_tbl <- tibble(simulations = 1:100) |> 
    mutate(new_scenarios = map(
        .x = rep(1859, 100), 
        .f = ~ generate_margins(model = dist_t, n = .x)
        )
    )
simul_tbl
#> # A tibble: 100 x 2
#>    simulations new_scenarios  
#>          <int> <list>         
#>  1           1 <list<dbl> [1]>
#>  2           2 <list<dbl> [1]>
#>  3           3 <list<dbl> [1]>
#>  4           4 <list<dbl> [1]>
#>  5           5 <list<dbl> [1]>
#>  6           6 <list<dbl> [1]>
#>  7           7 <list<dbl> [1]>
#>  8           8 <list<dbl> [1]>
#>  9           9 <list<dbl> [1]>
#> 10          10 <list<dbl> [1]>
#> # ... with 90 more rows
```

The output of `new_scenarios()` is a list. It’s easy to pass over it
with the command bellow:

``` r
simul_tbl <- simul_tbl |> 
  mutate(new_scenarios = map(new_scenarios, 1))
simul_tbl
#> # A tibble: 100 x 2
#>    simulations new_scenarios       
#>          <int> <list>              
#>  1           1 <tibble [1,859 x 4]>
#>  2           2 <tibble [1,859 x 4]>
#>  3           3 <tibble [1,859 x 4]>
#>  4           4 <tibble [1,859 x 4]>
#>  5           5 <tibble [1,859 x 4]>
#>  6           6 <tibble [1,859 x 4]>
#>  7           7 <tibble [1,859 x 4]>
#>  8           8 <tibble [1,859 x 4]>
#>  9           9 <tibble [1,859 x 4]>
#> 10          10 <tibble [1,859 x 4]>
#> # ... with 90 more rows
```
…
``` r
simul_tbl <- simul_tbl |> 
  mutate(cma_comb = map(
    .x = new_scenarios, 
    .f = ~ cma_combination(
      x      = .x,
      cdf    = step_one$cdf, 
      copula = step_one$copula
    ) 
  ), 
  weights = list(rep(0.25, 4))
  )
simul_tbl
#> # A tibble: 100 x 4
#>    simulations new_scenarios        cma_comb             weights  
#>          <int> <list>               <list>               <list>   
#>  1           1 <tibble [1,859 x 4]> <tibble [1,859 x 4]> <dbl [4]>
#>  2           2 <tibble [1,859 x 4]> <tibble [1,859 x 4]> <dbl [4]>
#>  3           3 <tibble [1,859 x 4]> <tibble [1,859 x 4]> <dbl [4]>
#>  4           4 <tibble [1,859 x 4]> <tibble [1,859 x 4]> <dbl [4]>
#>  5           5 <tibble [1,859 x 4]> <tibble [1,859 x 4]> <dbl [4]>
#>  6           6 <tibble [1,859 x 4]> <tibble [1,859 x 4]> <dbl [4]>
#>  7           7 <tibble [1,859 x 4]> <tibble [1,859 x 4]> <dbl [4]>
#>  8           8 <tibble [1,859 x 4]> <tibble [1,859 x 4]> <dbl [4]>
#>  9           9 <tibble [1,859 x 4]> <tibble [1,859 x 4]> <dbl [4]>
#> 10          10 <tibble [1,859 x 4]> <tibble [1,859 x 4]> <dbl [4]>
#> # ... with 90 more rows
```

``` r
simul_tbl <- simul_tbl |> 
  mutate(pnl = map2(.x = cma_comb, 
                    .y = weights, 
                    .f = ~ as.matrix(.x) %*% .y)) |> 
  select(-c(cma_comb, weights))
simul_tbl
#> # A tibble: 100 x 3
#>    simulations new_scenarios        pnl              
#>          <int> <list>               <list>           
#>  1           1 <tibble [1,859 x 4]> <dbl [1,859 x 1]>
#>  2           2 <tibble [1,859 x 4]> <dbl [1,859 x 1]>
#>  3           3 <tibble [1,859 x 4]> <dbl [1,859 x 1]>
#>  4           4 <tibble [1,859 x 4]> <dbl [1,859 x 1]>
#>  5           5 <tibble [1,859 x 4]> <dbl [1,859 x 1]>
#>  6           6 <tibble [1,859 x 4]> <dbl [1,859 x 1]>
#>  7           7 <tibble [1,859 x 4]> <dbl [1,859 x 1]>
#>  8           8 <tibble [1,859 x 4]> <dbl [1,859 x 1]>
#>  9           9 <tibble [1,859 x 4]> <dbl [1,859 x 1]>
#> 10          10 <tibble [1,859 x 4]> <dbl [1,859 x 1]>
#> # ... with 90 more rows
```
…
