What If Analysis • cma
…
The next step requires some tidyverse skills.

Step 3. Map the New Scenarios

Start building a list-column for the new scenarios wit generate_margins():

simul_tbl <- tibble(simulations = 1:100) |> 
    mutate(new_scenarios = map(
        .x = rep(1859, 100), 
        .f = ~ generate_margins(model = dist_t, n = .x)
        )
    ) |> 
    unnest(cols = new_scenarios)
simul_tbl
#> # A tibble: 100 × 2
#>    simulations new_scenarios
#>          <int>   <list<dbl>>
#>  1           1   [1,859 × 4]
#>  2           2   [1,859 × 4]
#>  3           3   [1,859 × 4]
#>  4           4   [1,859 × 4]
#>  5           5   [1,859 × 4]
#>  6           6   [1,859 × 4]
#>  7           7   [1,859 × 4]
#>  8           8   [1,859 × 4]
#>  9           9   [1,859 × 4]
#> 10          10   [1,859 × 4]
#> # … with 90 more rows
Now we have a tidy tibble with 100 marginal distributions that are consistent with the dist_t object fitted in step 2.

Step 4. “Glue” the New Scenarios Into the Empirical Copula

simul_tbl <- simul_tbl |> 
  mutate(cma_comb = map(
    .x = new_scenarios, 
    .f = ~ cma_combination(
      x      = .x,
      cdf    = step_one$cdf, 
      copula = step_one$copula)
    )
  )
simul_tbl
#> # A tibble: 100 × 3
#>    simulations new_scenarios cma_comb            
#>          <int>   <list<dbl>> <named list>        
#>  1           1   [1,859 × 4] <tibble [1,859 × 4]>
#>  2           2   [1,859 × 4] <tibble [1,859 × 4]>
#>  3           3   [1,859 × 4] <tibble [1,859 × 4]>
#>  4           4   [1,859 × 4] <tibble [1,859 × 4]>
#>  5           5   [1,859 × 4] <tibble [1,859 × 4]>
#>  6           6   [1,859 × 4] <tibble [1,859 × 4]>
#>  7           7   [1,859 × 4] <tibble [1,859 × 4]>
#>  8           8   [1,859 × 4] <tibble [1,859 × 4]>
#>  9           9   [1,859 × 4] <tibble [1,859 × 4]>
#> 10          10   [1,859 × 4] <tibble [1,859 × 4]>
#> # … with 90 more rows

simul_tbl <- simul_tbl |> 
    mutate(weights = list(rep(0.25, 4)), 
           pnl     = map2(.x = cma_comb, 
                          .y = weights, 
                          .f = ~ as.matrix(.x) %*% .y)) |> 
    select(-c(cma_comb, weights))
simul_tbl
#> # A tibble: 100 × 3
#>    simulations new_scenarios pnl              
#>          <int>   <list<dbl>> <named list>     
#>  1           1   [1,859 × 4] <dbl [1,859 × 1]>
#>  2           2   [1,859 × 4] <dbl [1,859 × 1]>
#>  3           3   [1,859 × 4] <dbl [1,859 × 1]>
#>  4           4   [1,859 × 4] <dbl [1,859 × 1]>
#>  5           5   [1,859 × 4] <dbl [1,859 × 1]>
#>  6           6   [1,859 × 4] <dbl [1,859 × 1]>
#>  7           7   [1,859 × 4] <dbl [1,859 × 1]>
#>  8           8   [1,859 × 4] <dbl [1,859 × 1]>
#>  9           9   [1,859 × 4] <dbl [1,859 × 1]>
#> 10          10   [1,859 × 4] <dbl [1,859 × 1]>
#> # … with 90 more rows
…
